DHF
…
Define the Lamda grid

set.seed(123)
lamda_grid <- grid_regular(penalty(), levels = 50)
lamda_grid

## # A tibble: 50 x 1
##     penalty
##       <dbl>
##  1 1   e-10
##  2 1.60e-10
##  3 2.56e-10
##  4 4.09e-10
##  5 6.55e-10
##  6 1.05e- 9
##  7 1.68e- 9
##  8 2.68e- 9
##  9 4.29e- 9
## 10 6.87e- 9
## # i 40 more rows
…
set.seed(123)
lasso_grid <- tune_grid(
  Lasso_workflow_T,
  resamples = train_boot,
  grid = lamda_grid)

lasso_grid %>%
  collect_metrics()

## # A tibble: 100 x 7
##     penalty .metric  .estimator  mean     n std_err .config              
##       <dbl> <chr>    <chr>      <dbl> <int>   <dbl> <chr>                
##  1 1   e-10 accuracy binary     0.746    25 0.00951 Preprocessor1_Model01
##  2 1   e-10 roc_auc  binary     0.693    25 0.0100  Preprocessor1_Model01
##  3 1.60e-10 accuracy binary     0.746    25 0.00951 Preprocessor1_Model02
##  4 1.60e-10 roc_auc  binary     0.693    25 0.0100  Preprocessor1_Model02
##  5 2.56e-10 accuracy binary     0.746    25 0.00951 Preprocessor1_Model03
##  6 2.56e-10 roc_auc  binary     0.693    25 0.0100  Preprocessor1_Model03
##  7 4.09e-10 accuracy binary     0.746    25 0.00951 Preprocessor1_Model04
##  8 4.09e-10 roc_auc  binary     0.693    25 0.0100  Preprocessor1_Model04
##  9 6.55e-10 accuracy binary     0.746    25 0.00951 Preprocessor1_Model05
## 10 6.55e-10 roc_auc  binary     0.693    25 0.0100  Preprocessor1_Model05
## # i 90 more rows
…
