Concurrent Proteus Effect Propensity
…
xgb_res<- tune_grid(
  xgb_workflow_T,
  resamples = train_boot,
  grid = xgb_grid)

## Warning: package 'xgboost' was built under R version 4.1.3

xgb_res

## # Tuning results
## # Bootstrap sampling using stratification 
## # A tibble: 25 x 4
##    splits            id          .metrics           .notes          
##    <list>            <chr>       <list>             <list>          
##  1 <split [896/335]> Bootstrap01 <tibble [60 x 10]> <tibble [0 x 3]>
##  2 <split [896/321]> Bootstrap02 <tibble [60 x 10]> <tibble [0 x 3]>
##  3 <split [896/333]> Bootstrap03 <tibble [60 x 10]> <tibble [0 x 3]>
##  4 <split [896/330]> Bootstrap04 <tibble [60 x 10]> <tibble [0 x 3]>
##  5 <split [896/349]> Bootstrap05 <tibble [60 x 10]> <tibble [0 x 3]>
##  6 <split [896/325]> Bootstrap06 <tibble [60 x 10]> <tibble [0 x 3]>
##  7 <split [896/341]> Bootstrap07 <tibble [60 x 10]> <tibble [0 x 3]>
##  8 <split [896/336]> Bootstrap08 <tibble [60 x 10]> <tibble [0 x 3]>
##  9 <split [896/335]> Bootstrap09 <tibble [60 x 10]> <tibble [0 x 3]>
## 10 <split [896/331]> Bootstrap10 <tibble [60 x 10]> <tibble [0 x 3]>
## # i 15 more rows
…
LR_res<- tune_grid(
  LR_workflow_T,
  resamples = train_boot,
  grid = LR_grid)

## Warning: package 'glmnet' was built under R version 4.1.3

## Warning: package 'Matrix' was built under R version 4.1.3

LR_res

## # Tuning results
## # Bootstrap sampling using stratification 
## # A tibble: 25 x 4
##    splits            id          .metrics           .notes          
##    <list>            <chr>       <list>             <list>          
##  1 <split [896/335]> Bootstrap01 <tibble [800 x 6]> <tibble [0 x 3]>
##  2 <split [896/321]> Bootstrap02 <tibble [800 x 6]> <tibble [0 x 3]>
##  3 <split [896/333]> Bootstrap03 <tibble [800 x 6]> <tibble [0 x 3]>
##  4 <split [896/330]> Bootstrap04 <tibble [800 x 6]> <tibble [0 x 3]>
##  5 <split [896/349]> Bootstrap05 <tibble [800 x 6]> <tibble [0 x 3]>
##  6 <split [896/325]> Bootstrap06 <tibble [800 x 6]> <tibble [0 x 3]>
##  7 <split [896/341]> Bootstrap07 <tibble [800 x 6]> <tibble [0 x 3]>
##  8 <split [896/336]> Bootstrap08 <tibble [800 x 6]> <tibble [0 x 3]>
##  9 <split [896/335]> Bootstrap09 <tibble [800 x 6]> <tibble [0 x 3]>
## 10 <split [896/331]> Bootstrap10 <tibble [800 x 6]> <tibble [0 x 3]>
## # i 15 more rows
…
set.seed(123)
lamda_grid <- grid_regular(penalty(), levels = 50)
lamda_grid

## # A tibble: 50 x 1
##     penalty
##       <dbl>
##  1 1   e-10
##  2 1.60e-10
##  3 2.56e-10
##  4 4.09e-10
##  5 6.55e-10
##  6 1.05e- 9
##  7 1.68e- 9
##  8 2.68e- 9
##  9 4.29e- 9
## 10 6.87e- 9
## # i 40 more rows
…
set.seed(123)
lasso_grid <- tune_grid(
  Lasso_workflow_T,
  resamples = train_boot,
  grid = lamda_grid)

lasso_grid %>%
  collect_metrics()

## # A tibble: 100 x 7
##     penalty .metric  .estimator  mean     n std_err .config              
##       <dbl> <chr>    <chr>      <dbl> <int>   <dbl> <chr>                
##  1 1   e-10 accuracy binary     0.742    25 0.00417 Preprocessor1_Model01
##  2 1   e-10 roc_auc  binary     0.807    25 0.00393 Preprocessor1_Model01
##  3 1.60e-10 accuracy binary     0.742    25 0.00417 Preprocessor1_Model02
##  4 1.60e-10 roc_auc  binary     0.807    25 0.00393 Preprocessor1_Model02
##  5 2.56e-10 accuracy binary     0.742    25 0.00417 Preprocessor1_Model03
##  6 2.56e-10 roc_auc  binary     0.807    25 0.00393 Preprocessor1_Model03
##  7 4.09e-10 accuracy binary     0.742    25 0.00417 Preprocessor1_Model04
##  8 4.09e-10 roc_auc  binary     0.807    25 0.00393 Preprocessor1_Model04
##  9 6.55e-10 accuracy binary     0.742    25 0.00417 Preprocessor1_Model05
## 10 6.55e-10 roc_auc  binary     0.807    25 0.00393 Preprocessor1_Model05
## # i 90 more rows
…
SVM_grid <- grid_regular(cost(),rbf_sigma(), levels = 10)

SVM_res<- tune_grid(
  SVM_workflow_T,
  resamples = train_boot,
  grid = SVM_grid)

SVM_res

## # Tuning results
## # Bootstrap sampling using stratification 
## # A tibble: 25 x 4
##    splits            id          .metrics           .notes          
##    <list>            <chr>       <list>             <list>          
##  1 <split [896/335]> Bootstrap01 <tibble [200 x 6]> <tibble [0 x 3]>
##  2 <split [896/321]> Bootstrap02 <tibble [200 x 6]> <tibble [0 x 3]>
##  3 <split [896/333]> Bootstrap03 <tibble [200 x 6]> <tibble [0 x 3]>
##  4 <split [896/330]> Bootstrap04 <tibble [200 x 6]> <tibble [0 x 3]>
##  5 <split [896/349]> Bootstrap05 <tibble [200 x 6]> <tibble [0 x 3]>
##  6 <split [896/325]> Bootstrap06 <tibble [200 x 6]> <tibble [0 x 3]>
##  7 <split [896/341]> Bootstrap07 <tibble [200 x 6]> <tibble [0 x 3]>
##  8 <split [896/336]> Bootstrap08 <tibble [200 x 6]> <tibble [0 x 3]>
##  9 <split [896/335]> Bootstrap09 <tibble [200 x 6]> <tibble [0 x 3]>
## 10 <split [896/331]> Bootstrap10 <tibble [200 x 6]> <tibble [0 x 3]>
## # i 15 more rows
…
